library\Library.class
library\PagesSpecyfication.class
library\LibraryBook.class
library\Main.class
library\Resources.class
library\ChangeableCathegory.class
library\Book.class
library\LibraryMember.class
